current directory: /home/dulce/Desktop/environment/toy_app/path/ruby/2.5.0/gems/byebug-9.0.6/ext/byebug
/usr/bin/ruby2.5 -I /usr/local/lib/site_ruby/2.5.0 -r ./siteconf20190717-10528-63c2kz.rb extconf.rb
creating Makefile

current directory: /home/dulce/Desktop/environment/toy_app/path/ruby/2.5.0/gems/byebug-9.0.6/ext/byebug
make "DESTDIR=" clean

current directory: /home/dulce/Desktop/environment/toy_app/path/ruby/2.5.0/gems/byebug-9.0.6/ext/byebug
make "DESTDIR="
compiling breakpoint.c
compiling byebug.c
compiling context.c
compiling locker.c
compiling threads.c
linking shared-object byebug/byebug.so

current directory: /home/dulce/Desktop/environment/toy_app/path/ruby/2.5.0/gems/byebug-9.0.6/ext/byebug
make "DESTDIR=" install
/usr/bin/install -c -m 0755 byebug.so ./.gem.20190717-10528-twhlsj/byebug
